{
    "@context": "https://doi.org/10.5063/schema/codemeta-2.0",
    "@type": "SoftwareSourceCode",
    "license": "https://spdx.org/licenses/GPL-3.0",
    "isPartOf": "https://interpeer.io/",
    "codeRepository": "https://codeberg.org/interpeer/shift.git",
    "contIntegration": "https://ci.codeberg.org/interpeer/shift",
    "dateCreated": "2023-06-29 14:26:19 +0200",
    "datePublished": "2023-06-29 14:26:19 +0200",
    "issueTracker": "https://codeberg.org/interpeer/shift/issues",
    "name": "shift",
    "developmentStatus": "wip",
    "funder": {
        "@type": "Organization",
        "name": "NLNet Foundation",
        "url": "https://nlnet.nl"
    },
    "programmingLanguage": [
        "C++"
    ],
    "operatingSystem": [
        "Linux",
        "BSD",
        "MacOS",
        "Windows"
    ],
    "softwareRequirements": [
        "Python 3"
    ],
    "relatedLink": [
        "https://interpeer.io/",
        "https://codeberg.org/interpeer/"
    ],
    "author": [
        {
            "@type": "Person",
            "@id": " https://orcid.org/0000-0002-1280-3658",
            "givenName": "Jens",
            "familyName": "Finkhaeuser",
            "email": "jens@interpeer.io",
            "affiliation": {
                "@type": "Organization",
                "name": "Interpeer gUG"
            }
        }
    ],
    "softwareRequirements": [
        "https://codeberg.org/interpeer/liberate/"
    ]
}
